A Title About Programming III: Revenge of the Lists
…
The following objects are masked from 'package:stats':

    filter, lag

The following objects are masked from 'package:base':

    intersect, setdiff, setequal, union

library(readxl)
library(readr)
arrange(filter(select(as_tibble(iris), starts_with("Petal"), Species), Petal.Length <
1.55), Species)

# A tibble: 37 × 3
   Petal.Length Petal.Width Species
          <dbl>       <dbl> <fct>  
 1          1.4         0.2 setosa 
 2          1.4         0.2 setosa 
 3          1.3         0.2 setosa 
 4          1.5         0.2 setosa 
 5          1.4         0.2 setosa 
 6          1.4         0.3 setosa 
 7          1.5         0.2 setosa 
 8          1.4         0.2 setosa 
 9          1.5         0.1 setosa 
10          1.5         0.2 setosa 
# ℹ 27 more rows

Our goal is a 37x3 tibble. No problem. We want to keep species, petal width, and petal length, as well as ensuring the petal length is less than 1.55. Here goes.

iris %>% select(starts_with("Petal"), Species) %>% filter(Petal.Length<1.55) %>% as_tibble()

# A tibble: 37 × 3
   Petal.Length Petal.Width Species
          <dbl>       <dbl> <fct>  
 1          1.4         0.2 setosa 
 2          1.4         0.2 setosa 
 3          1.3         0.2 setosa 
 4          1.5         0.2 setosa 
 5          1.4         0.2 setosa 
 6          1.4         0.3 setosa 
 7          1.5         0.2 setosa 
 8          1.4         0.2 setosa 
 9          1.5         0.1 setosa 
10          1.5         0.2 setosa 
# ℹ 27 more rows
…
Excel and Delimited Data

Let’s read in the white wine data. First sheet only.

white_wine<- read_excel("C:/Users/James P/Downloads/white-wine.xlsx", sheet = "white-wine")
white_wine

# A tibble: 4,898 × 12
   `fixed acidity` `volatile acidity` `citric acid` `residual sugar` chlorides
             <dbl>              <dbl>         <dbl>            <dbl>     <dbl>
 1               7               0.27          0.36             20.7     0.045
 2              63               0.3           0.34              1.6     0.049
 3              81               0.28          0.4               6.9     0.05 
 4              72               0.23          0.32              8.5     0.058
 5              72               0.23          0.32              8.5     0.058
 6              81               0.28          0.4               6.9     0.05 
 7              62               0.32          0.16              7       0.045
 8               7               0.27          0.36             20.7     0.045
 9              63               0.3           0.34              1.6     0.049
10              81               0.22          0.43              1.5     0.044
# ℹ 4,888 more rows
# ℹ 7 more variables: `free sulfur dioxide` <dbl>,
#   `total sulfur dioxide` <dbl>, density <dbl>, pH <dbl>, sulphates <dbl>,
#   alcohol <dbl>, quality <dbl>
…
There is a semi-colon delimited .csv of red wine. A… semi-colon .csv…If I were insane enough to open this in a text editor would each operation really be separated by “,;” ? It’s okay, this is what readr is for… I’m just glad this isn’t a data step in SAS.

Anyway, once I read in that file, I’m going to replace the variable names, (which thankfully I already have from the excel sheet), and add a column to denote the wines are red.

red_wine<- read_delim("C:/Users/James P/Downloads/red-wine.csv", delim = ";", show_col_types = F)
colnames(red_wine)<- varnames$Variables
red_wine$color<- "red"

And now we make forge the one data set… one tibble to rule them all… the WINE data set

wine<- bind_rows(list(white_wine,red_wine))
wine

# A tibble: 6,497 × 13
   fixed_acidity volatile_acidity citric_acid residual_sugar chlorides
           <dbl>            <dbl>       <dbl>          <dbl>     <dbl>
 1             7             0.27        0.36           20.7     0.045
 2            63             0.3         0.34            1.6     0.049
 3            81             0.28        0.4             6.9     0.05 
 4            72             0.23        0.32            8.5     0.058
 5            72             0.23        0.32            8.5     0.058
 6            81             0.28        0.4             6.9     0.05 
 7            62             0.32        0.16            7       0.045
 8             7             0.27        0.36           20.7     0.045
 9            63             0.3         0.34            1.6     0.049
10            81             0.22        0.43            1.5     0.044
# ℹ 6,487 more rows
# ℹ 8 more variables: free_sulfur_dioxide <dbl>, total_sulfur_dioxide <dbl>,
#   density <dbl>, pH <dbl>, sulphates <dbl>, alcohol <dbl>, quality <dbl>,
#   color <chr>

Now we’re going to filter wines with quality > 6.5, and alcohol less than 132. The homework specifies this as “reasonable” although “reasonable” is probably context dependent. Then we’re going to chain to sort from highest to lowest quality, select variables that contain “acid” and three others, and add the mean and sd of alcohol content.

wine %>% filter(quality>6.5) %>% filter(alcohol<132) %>% arrange(desc(quality)) %>% select(c(fixed_acidity,volatile_acidity,citric_acid, alcohol, color, quality)) %>%
  mutate(
    across(
      .cols = c(alcohol),
      .fns = c(mean,sd),
      .names = "{.col}_{.fn}"
    )
  )

# A tibble: 1,206 × 8
   fixed_acidity volatile_acidity citric_acid alcohol color quality alcohol_1
           <dbl>            <dbl>       <dbl>   <dbl> <chr>   <dbl>     <dbl>
 1            91             0.27        0.45     104 White       9      81.3
 2            66             0.36        0.29     124 White       9      81.3
 3            74             0.24        0.36     125 White       9      81.3
 4            69             0.36        0.34     127 White       9      81.3
 5            71             0.26        0.49     129 White       9      81.3
 6            62             0.66        0.48     128 White       8      81.3
 7            62             0.66        0.48     128 White       8      81.3
 8            68             0.26        0.42     105 White       8      81.3
 9            67             0.23        0.31     107 White       8      81.3
10            67             0.23        0.31     107 White       8      81.3
# ℹ 1,196 more rows
# ℹ 1 more variable: alcohol_2 <dbl>
…
Okay, this one is a lot. We’re gonna grab some columns from the managers table, and use those columns to determine their overall win/loss ratios. We’re gonna then sort from winningnest to losingest. (I know those aren’t words but this isn’t English class)

tbl(con, "Managers") |>
select(c(playerID,G,W,L)) |>
group_by(playerID) |>
summarize(G_managed = sum(G, na.rm = TRUE),
Total_W = sum(W, na.rm = TRUE),
Total_L = sum(L, na.rm = TRUE)) %>% collect() %>% mutate(Total_WG_managed = Total_W / G_managed) %>% arrange(desc(Total_WG_managed))

# A tibble: 749 × 5
   playerID  G_managed Total_W Total_L Total_WG_managed
   <chr>         <int>   <int>   <int>            <dbl>
 1 bensove01         1       1       0                1
 2 burwebi01         1       1       0                1
 3 cohenan01         1       1       0                1
 4 ebeldi99          3       3       0                1
 5 falkbi01          1       1       0                1
 6 hardeme01         3       3       0                1
 7 simmote01         1       1       0                1
 8 steinte01         2       2       0                1
 9 sukefcl01         2       2       0                1
10 tamarjo01         1       1       0                1
# ℹ 739 more rows
…
